ESM 244 Lab 7 Parts 2-3: Text Cleaning, Mining, and Sentiment Analysis
…
Tokens

hobbit_tokens <- hobbit_df %>% 
  tidytext::unnest_tokens(word, 
                          text_full) %>% 
  dplyr::select(-hobbit_text) # At this point, adding in a lot of packages may conflict with 'dplyr' - this may only be an issue in the R Bren Server V3.6...

hobbit_wordcount <- hobbit_tokens %>% 
  count(chapter, 
        word)

hobbit_wordcount

## # A tibble: 22,123 x 3
##    chapter word             n
##      <dbl> <chr>        <int>
##  1       1 a              224
##  2       1 about           33
##  3       1 above            1
##  4       1 abreast          1
##  5       1 absurd           2
##  6       1 accidentally     1
##  7       1 across           4
##  8       1 added            2
##  9       1 addition         1
## 10       1 adventure        5
## #  with 22,113 more rows

Removing all stop_words that exist in hobbit_tokens

hobbit_nonstop_words <- hobbit_tokens %>% 
  anti_join(stop_words) # To indicate what words you do not want to keep in the text data frame.

nonstop_counts <- hobbit_nonstop_words %>% 
  count(chapter, 
        word)

nonstop_counts

## # A tibble: 16,541 x 3
##    chapter word             n
##      <dbl> <chr>        <int>
##  1       1 abreast          1
##  2       1 absurd           2
##  3       1 accidentally     1
##  4       1 added            2
##  5       1 addition         1
##  6       1 adventure        5
##  7       1 adventures      10
##  8       1 adventurous      2
##  9       1 afresh           1
## 10       1 afternoon        1
## #  with 16,531 more rows
…
